{
	"$id" : "https://gitlab.com/php-extended/php-api-fr-insee-sirene-interface/json-schema.json",
	"$schema": "https://json-schema.org/draft/2020-12/schema",
	"type" : "null",
	"$defs" : {
		"ApiFrInseeSireneCategorieEntreprise" : {
			"type" : "object",
			"description" : "This represents the category of the entreprise.",
			"properties" : {
				"id" : {
					"type" : "integer",
					"description" : "The id of the category."
				},
				"code" : {
					"type" : "string",
					"description" : "The sigle of the category."
				},
				"name" : {
					"type" : "string",
					"description" : "The name of the category."
				}
			},
			"required" : ["id", "code", "name"]
		},
		"ApiFrInseeSireneEtablissement" : {
			"type" : "object",
			"description" : "This represents a line into the StockEtablissement file.",
			"properties" : {
				"siren" : {
					"type" : "string",
					"description" : "Un numéro d’identité de l’unité légale est attribué par l’Insee à toutes les personnes physiques ou morales inscrites au répertoire ainsi qu’à leurs établissements : le numéro Siren. Ce numéro unique est « attribué soit à l’occasion des demandes d’immatriculation au registre du commerce et des sociétés ou des déclarations effectuées au répertoire des métiers, soit à la demande d’administrations » (article R123-224 du code de  commerce). Lors de sa création, une unité légale se voit attribuer un numéro Siren de 9 chiffres.\n\n*Règles de gestion*\nLes entrepreneurs individuels, ou personnes physiques, conservent le même numéro Siren jusqu’à leur décès. Les sociétés, ou personnes morales, perdent la personnalité juridique au moment de la cessation de l’activité de l’entreprise. Si l’activité devait reprendre ultérieurement, un nouveau numéro Siren sera attribué. Les numéros d’identification sont uniques : lorsqu’un numéro Siren a été attribué, il ne peut pas être réutilisé et attribué à une nouvelle unité légale, même lorsque l’activité a cessé.\n\n*Historique*\nMême si la mise en place du répertoire Sirene remonte à 1973, toutes les unités légales, y compris celles créées avant cette date, disposent d’un numéro Siren pour le secteur privé non agricole.\nEn 1983, le champ du répertoire Sirene et l’obligation d’immatriculation ont été étendus aux institutions et services de l’État et aux collectivités territoriales.\nEn 1993, le champ du répertoire Sirene et l’obligation d’immatriculation ont été étendus au secteur privé agricole.\n\nLongueur : 9"
				},
				"nic" : {
					"type" : "string",
					"description" : "Le numéro interne de classement permet de distinguer les établissements d'une même entreprise. Il est composé de 5 chiffres. Associé au Siren, il forme le Siret de l'établissement. Il est composé de quatre chiffres et d'un cinquième qui permet de contrôler la validité du numéro Siret.\nLe Nic est attribué une seule fois au sein de l'entreprise. Si l'établissement ferme, son Nic ne peut être réattribué à un nouvel établissement.\n\nLongueur : 5"
				},
				"siret" : {
					"type" : "string",
					"description" : "Le numéro Siret est le numéro unique d’identification attribué à chaque établissement par l’Insee. Ce numéro est un simple numéro d’ordre, composé de 14 chiffres non significatifs : les neuf premiers correspondent au numéro Siren de l’entreprise dont l’établissement dépend et les cinq derniers à un numéro interne de classement (Nic).\nUne entreprise est constituée d’autant d’établissements qu’il y a de lieux différents où elle exerce son activité. L’établissement est fermé quand l’activité cesse dans l’établissement concerné ou lorsque l’établissement change d’adresse.\n\nLongueur : 14"
				},
				"statutDiffusionEtablissement" : {
					"type" : "boolean",
					"description" : "Seuls les établissements diffusibles sont accessibles à tout public (statutDiffusionEtablissement=O)."
				},
				"dateCreationEtablissement" : {
					"type" : "string",
					"description" : "La date de création correspond à la date qui figure dans les statuts de l’entreprise déposés au CFE compétent.\nPour les établissements des unités purgées (unitePurgeeUniteLegale=true): si la date de création est au 01/01/1900 dans Sirene, la date est forcée à null.\nDans tous les autres cas, la date de création n'est jamais à null. Si elle est non renseignée, elle sera au 01/01/1900.\nLa date de création ne correspond pas obligatoirement à dateDebut de la première période de l'établissement, certaines variables historisées pouvant posséder des dates de début soit au 1900-01-01, soit antérieures à la date de création.",
					"format" : "date"
				},
				"trancheEffectifsEtablissement" : {
					"$ref" : "#/$defs/ApiFrInseeSireneTrancheEffectifs",
					"description" : "Il s’agit d’une variable statistique, millésimée au 31/12 d’une année donnée (voir variable anneeEffectifsEtablissement)."
				},
				"anneeEffectifsEtablissement" : {
					"type" : "integer",
					"description" : "Seule la dernière année de mise à jour de l’effectif salarié de l’établissement est donnée si celle-ci est inférieure ou égale à l’année d’interrogation-3. Ainsi une interrogation en 2018 ne renverra la dernière année de mise à jour de l’effectif que si cette année est supérieure ou égale à 2015."
				},
				"activitePrincipaleRegistreMetiersEtablissement" : {
					"type" : "string",
					"description" : "Cette variable désigne le code de l'activité exercée par l'artisan inscrit au registre des métiers selon la Nomenclature d'Activités Française de l'Artisanat (NAFA).\n\nLongueur : 6"
				},
				"dateDernierTraitementEtablissement" : {
					"type" : "string",
					"description" : "Cette date peut concerner des mises à jour de données du répertoire Sirene qui ne sont pas diffusées par API Sirene.\nCette variable peut être à null.",
					"format" : "date"
				},
				"etablissementSiege" : {
					"type" : "boolean",
					"description" : "C’est une variable booléenne qui indique si l'établissement est le siège ou non de l'unité légale. Variable calculée toujours renseignée."
				},
				"nombrePeriodesEtablissement" : {
					"type" : "integer",
					"description" : "Cette variable donne le nombre de périodes [dateDebut,dateFin] de l’établissement. Chaque période correspond à l’intervalle de temps pendant lequel la totalité des variables historisées de l’établissement n’ont pas été modifiées.\nLes dates de ces périodes sont des dates d’effet (et non des dates de traitement)."
				},
				"complementAdresseEtablissement" : {
					"type" : "string",
					"description" : "Cette variable est un élément constitutif de l’adresse.\nC'est une variable facultative qui précise l'adresse avec :\n - une indication d'étage, d'appartement, de porte, de N° de boîte à lettres,\n - la désignation d'un bâtiment, d'un escalier, d'une entrée, d'un bloc,\n - le nom d'une résidence, d'un ensemble….\n\nLongueur : 38"
				},
				"numeroVoieEtablissement" : {
					"type" : "integer",
					"description" : "C'est un élément constitutif de l’adresse.\nCette variable est facultative.\nSi plusieurs numéros de voie sont indiqués (5-7, 5 à 7…), l'information complète (5-7) ou (5 à 7) figure en complément d'adresse et le premier des numéros (5 dans l'exemple) est porté dans la variable numeroVoieEtablissement."
				},
				"indiceRepetitionEtablissement" : {
					"type" : "string",
					"description" : "Cette variable un élément constitutif de l’adresse.\nCette variable est facultative.\nElle doit être associée à la variable numeroVoieEtablissement.\n\nLongueur : 1"
				},
				"dernierNumeroVoieEtablissement" : {
					"type" : "integer",
					"description" : "Le numéro de voie de l'adresse précédente, s'il y en a une.."
				},
				"indiceRepetitionDernierNumeroVoieEtablissement" : {
					"type" : "string",
					"description" : "L'indice de répétition de l'adresse précédente, s'il y en a une."
				},
				"typeVoieEtablissement" : {
					"$ref" : "https://gitlab.com/php-extended/php-api-fr-insee-ban-interface/json-schema.json#/$defs/ApiFrInseeBanTypeVoie",
					"description" : "C'est un élément constitutif de l’adresse.\n\nSi le type de voie est d'une longueur inférieure ou égale à 4 caractères, le type de voie n'est pas abrégé. Ainsi, RUE ou QUAI sont écrits tels quels, alors que AVENUE est abrégée en AV."
				},
				"libelleVoieEtablissement" : {
					"type" : "string",
					"description" : "Cette variable indique le libellé de voie de la commune de localisation de l'établissement. \nC’est un élément constitutif de l’adresse.\nCette variable est facultative : elle n'est pas toujours renseignée, en particulier dans les petites communes.\n\nLongueur : 100"
				},
				"codePostalEtablissement" : {
					"type" : "string",
					"description" : "Cette variable désigne le code postal de l’adresse de l’établissement.\nPour les adresses à l’étranger (codeCommuneEtablissement commence par 99), cette variable est à null.\n\nLongueur : 5"
				},
				"libelleCommuneEtablissement" : {
					"type" : "string",
					"description" : "Cette variable indique le libellé de la commune de localisation de l'établissement si celui-ci n’est pas à l’étranger. C’est un élément constitutif de l’adresse.\n\nLongueur : 100"
				},
				"libelleCommuneEtrangerEtablissement" : {
					"type" : "string",
					"description" : "Cette variable est un élément constitutif de l’adresse pour les établissements situés sur le territoire étranger (la variable codeCommuneEtablissement est vide).\n\nLongueur : 100"
				},
				"distributionSpecialeEtablissement" : {
					"type" : "string",
					"description" : "La distribution spéciale reprend les éléments particuliers qui accompagnent une adresse de distribution spéciale. C’est un élément constitutif de l’adresse.\nCette variable est facultative.\n\nLongueur 26\n\n*Exemples de début de modalités attendues*\nBP : Boîte postale\nTSA : Tri par service à l'arrivée\nLP : Local postal\nRP : Référence postale\nSP : Secteur postal\nCP : Case postale\nCE : Case entreprise\nCS : Course spéciale\nPOSTE RESTANTE\nCEDEX : Courrier d'entreprise à distribution exceptionnelle\nCIDEX : Courrier individuel à distribution exceptionnelle\nCASE, NIVEAU : Mots utilisés pour la distribution interne du courrier à LA DEFENSE\nCASIER : Utilisé pour le centre commercial des Quatre Temps\nSILIC, SENIA, MAREE, FLEURS… : Utilisés sur le site de Rungis"
				},
				"codeCommuneEtablissement" : {
					"type" : "string",
					"description" : "Cette variable désigne le code de la commune de localisation de l'établissement, hors adresse à l'étranger.\nLe code commune correspond au code commune existant à la date de la mise à disposition : toute modification du code officiel géographique est répercutée sur la totalité des établissements (même ceux fermés) correspondant à ce code commune.\n\nPour les établissements localisés à l'étranger, la variable codeCommuneEtablissement est à null.\n\nLongueur : 5"
				},
				"codeCedexEtablissement" : {
					"type" : "string",
					"description" : "Cette variable est un élément constitutif de l’adresse.\nElle est facultative.\n\nLongueur : 9"
				},
				"libelleCedexEtablissement" : {
					"type" : "string",
					"description" : "Cette variable indique le libellé correspondant au code cedex de l'établissement si celui-ci est non null. Ce libellé est le libellé utilisé dans la ligne 6 d’adresse pour l’acheminement postal.\n\nLongueur : 100"
				},
				"codePaysEtrangerEtablissement" : {
					"type" : "string",
					"description" : "Cette variable désigne le code du pays de localisation de l'établissement pour les adresses à l'étranger. La variable codePaysEtrangerEtablissement commence toujours par 99 si elle est renseignée. Les 3 caractères suivants sont le code du pays étranger.\n\nLongueur : 5"
				},
				"libellePaysEtrangerEtablissement" : {
					"type" : "string",
					"description" : "Cette variable indique le libellé du pays de localisation de l'établissement si celui-ci est à l’étranger. C’est un élément constitutif de l’adresse.\n\nLongueur : 100"
				},
				"identifiantAdresseEtablissement" : {
					"type" : "string",
					"description" : "Identifiant de l'adresse\nLongueur : 15"
				},
				"coordonneeLambertAbscisseEtablissement" : {
					"type" : "number",
					"description" : "Abscisse des coordonnees Lambert de l'adresse"
				},
				"coordonneeLambertOrdonneeEtablissement" : {
					"type" : "number",
					"description" : "Ordonnée des coordonnees Lambert de l'adresse"
				},
				"complementAdresse2Etablissement" : {
					"type" : "string",
					"description" : "Dans le cas où l’établissement dispose d’une entrée secondaire, cette variable est un élément constitutif de l’adresse secondaire.\nC'est une variable facultative qui précise l'adresse secondaire avec :\n - une indication d'étage, d'appartement, de porte, de N° de boîte à lettres,\n - la désignation d'un bâtiment, d'un escalier, d'une entrée, d'un bloc,\n - le nom d'une résidence, d'un ensemble….\n\nLongueur : 38"
				},
				"numeroVoie2Etablissement" : {
					"type" : "integer",
					"description" : "C'est un élément constitutif de l’adresse secondaire.\nCette variable est facultative.\nSi plusieurs numéros de voie sont indiqués (5-7, 5 à 7…), l'information complète (5-7) ou (5 à 7) figure en complément d'adresse secondaire et le premier des numéros (5 dans l'exemple) est porté dans la variable numeroVoie2Etablissement."
				},
				"indiceRepetition2Etablissement" : {
					"type" : "string",
					"description" : "Cette variable un élément constitutif de l’adresse secondaire. Cette variable est facultative. Elle doit être associée à la variable numeroVoie2Etablissement.\n\nLongueur : 1"
				},
				"typeVoie2Etablissement" : {
					"$ref" : "https://gitlab.com/php-extended/php-api-fr-insee-ban-interface/json-schema.json#/$defs/ApiFrInseeBanTypeVoie",
					"description" : "Cette variable est un élément constitutif de l’adresse secondaire.\n\nSi le type de voie est d'une longueur inférieure ou égale à 4 caractères, le type de voie n'est pas abrégé. Ainsi, RUE ou QUAI sont écrits tels quels, alors que AVENUE est abrégée en AV."
				},
				"libelleVoie2Etablissement" : {
					"type" : "string",
					"description" : "Cette variable indique le libellé de la voie de l’adresse secondaire de l'établissement.\nC’est un élément constitutif de l’adresse secondaire.\nCette variable est facultative : elle n'est pas toujours renseignée, en particulier dans les petites communes.\n\nLongueur : 100"
				},
				"codePostal2Etablissement" : {
					"type" : "string",
					"description" : "Cette variable désigne le code postal de l’adresse de l’établissement.\nPour les adresses à l’étranger (codeCommuneEtablissement commence par 99), cette variable est à null.\n\nLongueur : 5"
				},
				"libelleCommune2Etablissement" : {
					"type" : "string",
					"description" : "Cette variable indique le libellé de la commune de l’adresse secondaire de l'établissement si celui-ci n’est pas à l’étranger. C’est un élément constitutif de l’adresse.\n\nLongueur : 100"
				},
				"libelleCommuneEtranger2Etablissement" : {
					"type" : "string",
					"description" : "Dans le cas où l’établissement dispose d’une entrée secondaire, cette variable est un élément constitutif de l’adresse secondaire pour les établissements situés sur le territoire étranger (la variable codeCommune2Etablissement est vide).\n\nLongueur : 100"
				},
				"distributionSpeciale2Etablissement" : {
					"type" : "string",
					"description" : "Dans le cas où l’établissement dispose d’une entrée secondaire, la distribution spéciale reprend les éléments particuliers qui accompagnent l’adresse secondaire de distribution spéciale. C’est un élément constitutif de l’adresse secondaire.\nCette variable est facultative.\n\nLongueur : 26\n\n*Exemples de début de modalités attendues*\nBP : Boîte postale\nTSA : Tri par service à l'arrivée\nLP : Local postal\nRP : Référence postale\nSP : Secteur postal\nCP : Case postale\nCE : Case entreprise\nCS : Course spéciale\nPOSTE RESTANTE\nCEDEX : Courrier d'entreprise à distribution exceptionnelle\nCIDEX : Courrier individuel à distribution exceptionnelle\nCASE, NIVEAU : Mots utilisés pour la distribution interne du courrier à LA DEFENSE\nCASIER : Utilisé pour le centre commercial des Quatre Temps\nSILIC, SENIA, MAREE, FLEURS… : Utilisés sur le site de Rungis"
				},
				"codeCommune2Etablissement" : {
					"type" : "string",
					"description" : "Dans le cas où l’établissement dispose d’une entrée secondaire, cette variable désigne le code de la commune de l’adresse secondaire de l’établissement, hors adresse à l'étranger. Le code commune correspond au code commune existant à la date de la mise à disposition : toute modification du code officiel géographique est répercutée sur la totalité des établissements (même ceux fermés) correspondant à ce code commune.\nPour les établissements localisés à l'étranger, la variable codeCommune2Etablissement est à null.\n\nLongueur : 5"
				},
				"codeCedex2Etablissement" : {
					"type" : "string",
					"description" : "Dans le cas où l’établissement dispose d’une entrée secondaire, c’est un élément constitutif de l’adresse secondaire.\nCette variable est facultative.\n\nLongueur : 9"
				},
				"libelleCedex2Etablissement" : {
					"type" : "string",
					"description" : "Cette variable indique le libellé correspondant au code cedex de l’adresse secondaire de l'établissement si celui-ci est non null. Ce libellé est le libellé utilisé dans la ligne 6 d’adresse pour l’acheminement postal.\n\nLongueur : 100"
				},
				"codePaysEtranger2Etablissement" : {
					"type" : "string",
					"description" : "Dans le cas où l’établissement dispose d’une entrée secondaire, cette variable désigne le code du pays de localisation de l'adresse secondaire de l'établissement pour les adresses à l'étranger. La variable codePaysEtranger2Etablissement commence toujours par 99 si elle est renseignée. Les 3 caractères suivants sont le code du pays étranger.\n\nLongueur : 5"
				},
				"libellePaysEtranger2Etablissement" : {
					"type" : "string",
					"description" : "Cette variable indique le libellé du pays de localisation de l’adresse secondaire de l'établissement si celui-ci est à l’étranger.\nC’est un élément constitutif de l’adresse.\n\nLongueur : 100"
				},
				"dateDebut" : {
					"type" : "string",
					"description" : "Date de début de la période au cours de laquelle toutes les variables historisées de l'établissement restent inchangées.\nLa date 1900-01-01 signifie : date non déterminée.\ndateDebut peut-être vide uniquement pour les établissements des unités purgées (cf. variable unitePurgeeUniteLegale dans le descriptif des variables du fichier StockUniteLegale).\nLa date de début de la période la plus ancienne ne correspond pas obligatoirement à la date de création de l'établissement, certaines variables historisées pouvant posséder des dates de début soit au 1900-01-01 soit antérieures à la date de création.",
					"format" : "date"
				},
				"etatAdministratifEtablissement" : {
					"$ref" : "#/$defs/ApiFrInseeSireneEtatAdministratif",
					"description" : "Lors de son inscription au répertoire, un établissement est, sauf exception, à l’état « Actif ». Le passage à l’état « Fermé » découle de la prise en compte d’une déclaration de fermeture.\nÀ noter qu’un établissement fermé peut être rouvert.\nEn règle générale, la première période d’historique d’un établissement correspond à un etatAdministratifUniteLegale égal à « Actif ». Toutefois, l'état administratif peut être à null (première date de début de l'état postérieure à la première date de début d'une autre variable historisée)."
				},
				"enseigne1Etablissement" : {
					"type" : "string",
					"description" : "Les trois variables enseigne1Etablissement, enseigne2Etablissement et enseigne3Etablissement contiennent la ou les enseignes de l'établissement.\nL'enseigne identifie l'emplacement ou le local dans lequel est exercée l'activité. Un établissement peut posséder une enseigne, plusieurs enseignes ou aucune.\n\nL'analyse des enseignes et de son découpage en trois variables dans Sirene montre deux cas possibles : soit les 3 champs concernent 3 enseignes bien distinctes, soit ces trois champs correspondent au découpage de l'enseigne qui est déclarée dans la liasse (sur un seul champ) avec une continuité des trois champs.\n\n*Exemples*\nSIRET=53053581400178\n\"enseigne1Etablissement\": \"LES SERRURIERS DES YVELINES LES VITRIERS DES YVELI\",\n\"enseigne2Etablissement\": \"NES LES CHAUFFAGISTES DES YVELINES LES PLATRIERS D\",\n\"enseigne3Etablissement\": \"ES YVELINES LES ELECTRICIENS DES YVELINES.…\"\n\nSIRET=05439181800033\n\"enseigne1Etablissement\": \"HALTE OCCASIONS\",\n\"enseigne2Etablissement\": \"OUTRE-MER LOCATION\",\n\"enseigne3Etablissement\": \"OUTRE-MER TRANSIT\".\n\nCette variable est historisée.\n\nLongueur : 50"
				},
				"enseigne2Etablissement" : {
					"type" : "string",
					"description" : "2e ligne de l'enseigne."
				},
				"enseigne3Etablissement" : {
					"type" : "string",
					"description" : "3e ligne de l'enseigne."
				},
				"denominationUsuelleEtablissement" : {
					"type" : "string",
					"description" : "Cette variable désigne le nom sous lequel l'établissement est connu du grand public. Cet élément d'identification de l'établissement a été enregistré au niveau établissement depuis l'application de la norme d'échanges CFE de 2008. Avant la norme 2008, la dénomination usuelle était enregistrée au niveau de l'unité légale sur trois champs (cf. variables denominationUsuelle1UniteLegale à denominationUsuelle3UniteLegale dans le descriptif des variables du fichier StockUniteLegale).\nCette variable est historisée.\n\nLongueur : 100"
				},
				"activitePrincipaleEtablissement" : {
					"type" : "string",
					"description" : "Lors de son inscription au répertoire, l’Insee attribue à tout établissement un code dit « APE » sur la base de la description de l’activité principale faite par le déclarant. Ce code est modifiable au cours de la vie de l’établissement en fonction des déclarations de l’exploitant.\nPour chaque établissement, il existe à un instant donné un seul code « APE ». Il est attribué selon la nomenclature en vigueur. La nomenclature en vigueur est la Naf Rév2 et ce depuis le 1 er Janvier 2008.\nChaque code comporte 2 chiffres, un point, 2 chiffres et une lettre. Tous les établissements actifs au 01/01/2008 ont eu leur code APE recodé dans la nouvelle nomenclature, ainsi de très nombreux établissements ont une période débutant à cette date.\nAu moment de la déclaration de l’entreprise, il peut arriver que l’Insee ne soit pas en mesure d’attribuer le bon code APE : la modalité 00.00Z peut alors être affectée provisoirement.\n\n*Historique*\nLe code APE est historisé depuis le 01/01/2005.\nLa règle d’historisation des données d’activité est la suivante :\n - Pour les établissements fermés avant le 31/12/2004, seul le dernier code activité connu figure, dans la nomenclature en vigueur à la date de fermeture.\n - Pour les établissements ouverts après le 01/01/2005 et fermés avant le 31/12/2007, l’historique des codes attribués sur la période est disponible.\n - Pour les établissements ouverts après le 01/01/2005 et toujours ouverts le 01/01/2008, l’historique intègre le changement de nomenclature.\n - Pour les établissements ouverts après le 01/01/2008, l’historique comprend les modifications apportées au cours de la vie de l’établissement.\nL'APE peut être à null (cas des unités purgées - pour des raisons de capacité de stockage des données, les données concernant les entreprises cessées avant le 31/12/2002 ont été purgées -, première date de début de l'APE postérieure à la première date de début d'une autre variable historisée).\n\nLongueur : 6"
				},
				"nomenclatureActivitePrincipaleEtablissement" : {
					"$ref" : "#/$defs/ApiFrInseeSireneNomenclatureApe",
					"description" : "Cette variable indique la nomenclature d’activité correspondant à la variable activitePrincipaleEtablissement (cf. activitePrincipaleEtablissement)."
				},
				"caractereEmployeurEtablissement" : {
					"type" : "boolean",
					"description" : "Lors de sa formalité d’ouverture, le déclarant indique si l’établissement aura ou non des employés. Par la suite, le déclarant peut également faire des déclarations de prise d’emploi et de fin d’emploi. La prise en compte d’une déclaration de prise d’emploi bascule immédiatement l’établissement en « employeur ».\nInversement, lorsqu’une déclaration de fin d’emploi est traitée, l’établissement devient « non employeur ». Pour chaque établissement, il existe à un instant donné un seul code « employeur ».\nCette variable est historisée pour les établissements qui étaient ouverts en 2005 et pour ceux ouverts ultérieurement."
				}
			},
			"required" : ["siren", "nic", "siret", "statutDiffusionEtablissement", "etablissementSiege", "etatAdministratifEtablissement"]
		},
		"ApiFrInseeSireneEtablissementHistorique" : {
			"type" : "object",
			"description" : "This represents a line into the StockEtablissementHistoric file.",
			"properties" : {
				"siren" : {
					"type" : "string",
					"description" : "Un numéro d’identité de l’unité légale est attribué par l’Insee à toutes les personnes physiques ou morales inscrites au répertoire ainsi qu’à leurs établissements : le numéro Siren. Ce numéro unique est « attribué soit à l’occasion des demandes d’immatriculation au registre du commerce et des sociétés ou des déclarations effectuées au répertoire des métiers, soit à la demande d’administrations » (article R123-224 du code de commerce). Lors de sa création, une unité légale se voit attribuer un numéro Siren de 9 chiffres.\n\n*Règles de gestion*\nLes entrepreneurs individuels, ou personnes physiques, conservent le même numéro Siren jusqu’à leur décès. Les sociétés, ou personnes morales, perdent la personnalité juridique au moment de la cessation de l’activité de l’entreprise. Si l’activité devait reprendre ultérieurement, un nouveau numéro Siren sera attribué. Les numéros d’identification sont uniques : lorsqu’un numéro Siren a été attribué, il ne peut pas être réutilisé et attribué à une nouvelle unité légale, même lorsque l’activité a cessé.\n\n*Historique*\nMême si la mise en place du répertoire Sirene remonte à 1973, toutes les unités légales, y compris celles créées avant cette date, disposent d’un numéro Siren pour le secteur privé non agricole.\nEn 1983, le champ du répertoire Sirene et l’obligation d’immatriculation ont été étendus aux institutions et services de l’État et aux collectivités territoriales.\nEn 1993, le champ du répertoire Sirene et l’obligation d’immatriculation ont été étendus au secteur privé agricole.\n\nLongueur : 9"
				},
				"nic" : {
					"type" : "string",
					"description" : "Le numéro interne de classement permet de distinguer les établissements d'une même entreprise. Il est composé de 5 chiffres. Associé au Siren, il forme le Siret de l'établissement. Il est composé de quatre chiffres et d'un cinquième qui permet de contrôler la validité du numéro Siret.\nLe Nic est attribué une seule fois au sein de l'entreprise. Si l'établissement ferme, son Nic ne peut être réattribué à un nouvel établissement.\n\nLongueur : 5"
				},
				"siret" : {
					"type" : "string",
					"description" : "Le numéro Siret est le numéro unique d’identification attribué à chaque établissement par l’Insee. Ce numéro est un simple numéro d’ordre, composé de 14 chiffres non significatifs : les neuf premiers correspondent au numéro Siren de l’entreprise dont l’établissement dépend et les cinq derniers à un numéro interne de classement (Nic).\nUne entreprise est constituée d’autant d’établissements qu’il y a de lieux différents où elle exerce son activité. L’établissement est fermé quand l’activité cesse dans l’établissement concerné ou lorsque l’établissement change d’adresse.\n\nLongueur : 14"
				},
				"dateFin" : {
					"type" : "string",
					"description" : "Cette variable désigne la date de fin de la période au cours de laquelle toutes les variables historisées de l'établissement restent inchangées.\nLa date de fin est calculée et est égale à la veille de la date de début de la période suivante dans l'ordre chronologique.\nSi la date de fin de la période est null, la période correspond à la situation courante de l'établissement.",
					"format" : "date"
				},
				"dateDebut" : {
					"type" : "string",
					"description" : "Date de début de la période au cours de laquelle toutes les variables historisées de l'établissement restent inchangées.\nLa date 1900-01-01 signifie : date non déterminée. dateDebut peut-être vide uniquement pour les établissements des unités purgées (cf. variable unitePurgeeUniteLegale dans le descriptif des variables du fichier StockUniteLegale).\nLa date de début de la période la plus ancienne ne correspond pas obligatoirement à la date de création de l'établissement, certaines variables historisées pouvant posséder des dates de début soit au 1900-01-01 soit antérieures à la date de création.",
					"format" : "date"
				},
				"etatAdministratifEtablissement" : {
					"$ref" : "#/$defs/ApiFrInseeSireneEtatAdministratif",
					"description" : "Lors de son inscription au répertoire, un établissement est, sauf exception, à l’état « Actif ». Le passage à l’état « Fermé » découle de la prise en compte d’une déclaration de fermeture. À noter qu’un établissement fermé peut être rouvert.\nEn règle générale, la première période d’historique d’un établissement correspond à un etatAdministratifUniteLegale égal à « Actif ». Toutefois, dans cette version, l'état administratif peut être à null (première date de début de l'état postérieure à la première date de début d'une autre variable historisée)."
				},
				"changementEtatAdministratifEtablissement" : {
					"type" : "boolean",
					"description" : "C’est une variable booléenne qui indique si la variable EtatAdministratifEtablissement a été modifiée par rapport à la période précédente."
				},
				"enseigne1Etablissement" : {
					"type" : "string",
					"description" : "Les trois variables enseigne1Etablissement, enseigne2Etablissement et enseigne3Etablissement contiennent la ou les enseignes de l'établissement.\nL'enseigne identifie l'emplacement ou le local dans lequel est exercée l'activité. Un établissement peut posséder une enseigne, plusieurs enseignes ou aucune.\nL'analyse des enseignes et de son découpage en trois variables dans Sirene montre deux cas possibles : soit les 3 champs concernent 3 enseignes bien distinctes, soit ces trois champs correspondent au découpage de l'enseigne qui est déclarée dans la liasse (sur un seul champ) avec une continuité des trois champs.\n\n*Exemples*\nSIRET=53053581400178\n\"enseigne1Etablissement\": \"LES SERRURIERS DES YVELINES LES VITRIERS DES YVELI\",\n\"enseigne2Etablissement\": \"NES LES CHAUFFAGISTES DES YVELINES LES PLATRIERS D\",\n\"enseigne3Etablissement\": \"ES YVELINES LES ELECTRICIENS DES YVELINES.…\"\n\nSIRET=05439181800033\n\"enseigne1Etablissement\": \"HALTE OCCASIONS\",\n\"enseigne2Etablissement\": \"OUTRE-MER LOCATION\",\n\"enseigne3Etablissement\": \"OUTRE-MER TRANSIT\".\n\nLongueur : 50"
				},
				"enseigne2Etablissement" : {
					"type" : "string",
					"description" : "2e enseigne."
				},
				"enseigne3Etablissement" : {
					"type" : "string",
					"description" : "3e enseigne."
				},
				"changementEnseigneEtablissement" : {
					"type" : "boolean",
					"description" : "C’est une variable booléenne qui indique si une des variables Enseigne1Etablissement à Enseigne3Etablissement a été modifiée par rapport à la période précédente."
				},
				"denominationUsuelleEtablissement" : {
					"type" : "string",
					"description" : "Cette variable désigne le nom sous lequel l'établissement est connu du grand public. Cet élément d'identification de l'établissement a été enregistré au niveau établissement depuis l'application de la norme d'échanges CFE de 2008. Avant la norme 2008, la dénomination usuelle était enregistrée au niveau de l'unité légale sur trois champs (cf. variables denominationUsuelle1UniteLegale à denominationUsuelle3UniteLegale dans le descriptif des variables du fichier StockUniteLegale).\n\nLongueur : 100"
				},
				"changementDenominationUsuelleEtablissement" : {
					"type" : "boolean",
					"description" : "C’est une variable booléenne qui indique si la variable denominationUsuelleEtablissement a été modifiée par rapport à la période précédente."
				},
				"activitePrincipaleEtablissement" : {
					"type" : "string",
					"description" : "Lors de son inscription au répertoire, l’Insee attribue à tout établissement un code dit « APE » sur la base de la description de l’activité principale faite par le déclarant. Ce code est modifiable au cours de la vie de l’établissement en fonction des déclarations de l’exploitant.\nPour chaque établissement, il existe à un instant donné un seul code « APE ». Il est attribué selon la nomenclature en vigueur. La nomenclature en vigueur est la Naf Rév2 et ce depuis le 1 er Janvier 2008.\nChaque code comporte 2 chiffres, un point, 2 chiffres et une lettre. Tous les établissements actifs au 01/01/2008 ont eu leur code APE recodé dans la nouvelle nomenclature, ainsi de très nombreux établissements ont une période débutant à cette date.\nAu moment de la déclaration de l’entreprise, il peut arriver que l’Insee ne soit pas en mesure d’attribuer le bon code APE : la modalité 00.00Z peut alors être affectée provisoirement.\n\n*Historique*\nLe code APE est historisé depuis le 01/01/2005.\nLa règle d’historisation des données d’activité est la suivante :\n - Pour les établissements fermés avant 31/12/2004, seul le dernier code activité connu figure, dans la nomenclature en vigueur à la date de fermeture.\n - Pour les établissements ouverts après le 01/01/2005 et fermés avant le 31/12/2007, l’historique des codes attribués sur la période est disponible.\n- Pour les établissements ouverts après le 01/01/2005 et toujours ouverts le 01/01/2008, l’historique intègre le changement de nomenclature.\n - Pour les établissements ouverts après le 01/01/2008, l’historique comprend les modifications apportées au cours de la vie de l’établissement.\nL'APE peut être à null (cas des unités purgées - pour des raisons de capacité de stockage des données, les données concernant les entreprises cessées avant le 31/12/2002 ont été purgées -, première date de début de l'APE postérieure à la première date de début d'une autre variable historisée).\n\nLongueur : 6"
				},
				"nomenclatureActivitePrincipaleEtablissement" : {
					"$ref" : "#/$defs/ApiFrInseeSireneNomenclatureApe",
					"description" : "Cette variable indique la nomenclature d’activité correspondant à la variable activitePrincipaleEtablissement. (cf activitePrincipaleEtablissement)."
				},
				"changementActivitePrincipaleEtablissement" : {
					"type" : "boolean",
					"description" : "C’est une variable booléenne qui indique si la variable activitePrincipaleEtablissement a été modifiée par rapport à la période précédente."
				},
				"caractereEmployeurEtablissement" : {
					"type" : "boolean",
					"description" : "Lors de sa formalité d’ouverture, le déclarant indique si l’établissement aura ou non des employés. Par la suite, le déclarant peut également faire des déclarations de prise d’emploi et de fin d’emploi. La prise en compte d’une déclaration de prise d’emploi bascule immédiatement l’établissement en « employeur ». Inversement, lorsqu’une déclaration de fin d’emploi est traitée, l’établissement devient « non employeur ».\nPour chaque établissement, il existe à un instant donné un seul code « employeur ». Cette variable est historisée pour les établissements qui étaient ouverts en 2005 et pour ceux ouverts ultérieurement."
				},
				"changementCaractereEmployeurEtablissement" : {
					"type" : "boolean",
					"description" : "C’est une variable booléenne qui indique si la variable CaractereEmployeurEtablissement a été modifiée par rapport à la période précédente."
				}
			},
			"required" : ["siren", "nic", "siret", "changementEtatAdministratifEtablissement", "changementEnseigneEtablissement", "changementDenominationUsuelleEtablissement", "changementActivitePrincipaleEtablissement", "changementCaractereEmployeurEtablissement"]
		},
		"ApiFrInseeSireneEtatAdministratif" : {
			"type" : "object",
			"description" : "This represents the administrative state of the legal unit.",
			"properties" : {
				"id" : {
					"type" : "integer",
					"description" : "The id of the administrative state."
				},
				"code" : {
					"type" : "string",
					"description" : "The code of the administrative state."
				},
				"name" : {
					"type" : "string",
					"description" : "The name of the administrative state."
				}
			},
			"required" : ["id", "code", "name"]
		},
		"ApiFrInseeSireneGender" : {
			"type" : "object",
			"description" : "This represents the gender of a physical person.",
			"properties" : {
				"id" : {
					"type" : "integer",
					"description" : "The id of the gender."
				},
				"code" : {
					"type" : "string",
					"description" : "The code of the gender."
				},
				"name" : {
					"type" : "string",
					"description" : "The name of the gender."
				}
			},
			"required" : ["id", "code", "name"]
		},
		"ApiFrInseeSireneNomenclatureApe" : {
			"type" : "object",
			"description" : "This represents the ape nomenclature that was used to label the legal units.",
			"properties" : {
				"id" : {
					"type" : "integer",
					"description" : "The identifier of the nomenclature."
				},
				"code" : {
					"type" : "string",
					"description" : "The code of the nomenclature."
				},
				"name" : {
					"type" : "string",
					"description" : "The name of the nomenclature."
				}
			},
			"required" : ["id", "code", "name"]
		},
		"ApiFrInseeSireneSuccession" : {
			"type" : "object",
			"description" : "This represents a line into the InseeSireneEtablissementLiensSuccession file.",
			"properties" : {
				"siretEtablissementPredecesseur" : {
					"type" : "string",
					"description" : "Cette variable désigne le numéro Siret de l’établissement prédécesseur.\nLe numéro Siret est le numéro unique d’identification attribué à chaque établissement par l’Insee. Ce numéro est un simple numéro d’ordre, composé de 14 chiffres non significatifs : les neuf premiers correspondent au numéro Siren de l’entreprise dont l’établissement dépend et les cinq derniers à un numéro interne de classement (Nic).\n\nLongueur : 14"
				},
				"siretEtablissementSuccesseur" : {
					"type" : "string",
					"description" : "Cette variable désigne le numéro Siret de l’établissement successeur.\nLe numéro Siret est le numéro unique d’identification attribué à chaque établissement par l’Insee. Ce numéro est un simple numéro d’ordre, composé de 14 chiffres non significatifs : les neuf premiers correspondent au numéro Siren de l’entreprise dont l’établissement dépend et les cinq derniers à un numéro interne de classement (Nic).\n\nLongueur : 14"
				},
				"dateLienSuccession" : {
					"type" : "string",
					"description" : "Cette variable indique la date à laquelle la succession a lieu.\n\nLongueur : 10",
					"format" : "date"
				},
				"transfertSiege" : {
					"type" : "boolean",
					"description" : "C’est une variable booléenne qui indique s’il s’agit d’un transfert de siège.\n\nIl peut s’agir d’un transfert de l’établissement ayant la qualité de siège, ou d’un transfert de la qualité de siège d’un établissement à un autre.\nLa variable prend la valeur true si le lien de succession concerne l’établissement siège, false si seulement des établissements secondaires sont concernés.\n\nLongueur : 5"
				},
				"continuiteEconomique" : {
					"type" : "boolean",
					"description" : "C’est une variable booléenne qui indique s’il y a continuité économique entre les deux établissements ou non :\n - true s’il y a continuité économique,\n - false s’il n’y a pas continuité économique,.\n\nNotion de continuité économique :\nIl y a continuité économique entre deux établissements qui se succèdent dès lors que deux des trois critères suivants sont vérifiés :\n - les deux établissements appartiennent à la même unité légale (même Siren) ;\n - les deux établissements exercent la même activité (même code APE) ;\n - les deux établissements sont situés dans un même lieu (numéro et libellé de voie, code commune).\nÀ noter : en cas de transfert de siège, la variable continuiteEconomique est toujours à true.\n\nLongueur : 5"
				},
				"dateDernierTraitementLienSuccession" : {
					"type" : "string",
					"description" : "Cette variable indique la date à laquelle le lien de succession a été enregistré dans le répertoire Sirene.\n\nLongueur : 19",
					"format" : "date"
				}
			},
			"required" : ["siretEtablissementPredecesseur", "siretEtablissementSuccesseur", "dateLienSuccession", "transfertSiege", "continuiteEconomique", "dateDernierTraitementLienSuccession"]
		},
		"ApiFrInseeSireneTrancheEffectifs" : {
			"type" : "object",
			"description" : "This represents the position of the number of people relative to the other entreprises.",
			"properties" : {
				"id" : {
					"type" : "integer",
					"description" : "The identifier of the tranche."
				},
				"code" : {
					"type" : "string",
					"description" : "The code of the tranche."
				},
				"name" : {
					"type" : "string",
					"description" : "The name of the tranche."
				},
				"effectifMin" : {
					"type" : "integer",
					"description" : "The effectif min of the tranche."
				},
				"effectifMax" : {
					"type" : "integer",
					"description" : "The effectif max of the tranche."
				}
			},
			"required" : ["id", "code", "name", "effectifMin", "effectifMax"]
		},
		"ApiFrInseeSireneUniteLegale" : {
			"type" : "object",
			"description" : "This represents a line into the StockUniteLegale file.",
			"properties" : {
				"siren" : {
					"type" : "string",
					"description" : "Un numéro d’identité de l’unité légale est attribué par l’Insee à toutes les personnes physiques ou morales inscrites au répertoire ainsi qu’à leurs établissements : le numéro Siren. Ce numéro unique est « attribué soit à l’occasion des demandes d’immatriculation au registre du commerce et des sociétés ou des déclarations effectuées au répertoire des métiers, soit à la demande d’administrations » (article R123-224 du code de commerce). Lors de sa création, une unité légale se voit attribuer un numéro Siren de 9 chiffres.\n\n*Règles de gestion*\nLes entrepreneurs individuels, ou personnes physiques, conservent le même numéro Siren jusqu’à leur décès. Les sociétés, ou personnes morales, perdent la personnalité juridique au moment de la cessation de l’activité de l’entreprise. Si l’activité devait reprendre ultérieurement, un nouveau numéro Siren sera attribué. Les numéros d’identification sont uniques : lorsqu’un numéro Siren a été attribué, il ne peut pas être réutilisé et attribué à une nouvelle unité légale, même lorsque l’activité a cessé.\n\n*Historique*\nMême si la mise en place du répertoire Sirene remonte à 1973, toutes les unités légales, y compris celles créées avant cette date, disposent d’un numéro Siren pour le secteur privé non agricole. En 1983, le champ du répertoire Sirene et l’obligation d’immatriculation ont été étendus aux institutions et services de l’État et aux collectivités territoriales.\nEn 1993, le champ du répertoire Sirene et l’obligation d’immatriculation ont été étendus au secteur privé agricole.\n\nLongueur : 9"
				},
				"statutDiffusionUniteLegale" : {
					"type" : "boolean",
					"description" : "Seules les unités légales diffusibles sont accessibles à tout public (statutDiffusionUniteLegale=O)."
				},
				"unitePurgeeUniteLegale" : {
					"type" : "boolean",
					"description" : "Cette variable indique si l'unité légale a été purgée.\nPour des raisons de capacité de stockage des données, les données concernant les entreprises cessées avant le 31/12/2002 ont été purgées.\nPour ces unités cessées dites purgées :\n - Seules les dernières valeurs des variables de niveau Unité Légale et de niveau Etablissement sont conservées\n - En théorie, seul l'établissement siège au moment de la purge est conservé avec uniquement les dernières valeurs de cet établissement.\nToutefois, pour plus de 300 unités légales purgées de la base, cette règle n’est pas respectée et ces unités ont toujours plus d'un établissement en base sans pouvoir garantir que tous les établissements ont été conservés.\nPlus de 4 millions d'unités légales sont purgées. Plus d’une unité purgée sur quatre a une date de création indéterminée.\n\n*Diffusion des unités purgées*\nL'état administratif de l'unité purgée est : cessé.\nL'indicatrice unitePurgeeUniteLegale est présente et est égale à true.\n\n*Diffusion des établissements des unités purgées*\nUne seule période avec dateDebut=date de début de l'état fermé si cette date est renseignée, sinon dateDebut (établissement) est à null.\nL'état administratif de l'établissement est : fermé."
				},
				"dateCreationUniteLegale" : {
					"type" : "string",
					"description" : "La date de création correspond à la date qui figure dans les statuts de l’entreprise déposés au CFE compétent.\nPour les unités purgées (unitePurgeeUniteLegale=true) : si la date de création est au 01/01/1900 dans Sirene, la date est forcée à null.\nDans tous les autres cas, la date de création n'est jamais à null. Si elle est non renseignée, elle sera au 01/01/1900. La date de création ne correspond pas obligatoirement à dateDebut de la première période de l'unité légale.\nCertaines variables historisées peuvent posséder des dates de début soit au 01/01/1900, soit antérieures à la date de création.",
					"format" : "date"
				},
				"sigleUniteLegale" : {
					"type" : "string",
					"description" : "Un sigle est une forme réduite de la raison sociale ou de la dénomination d'une personne morale ou d'un organisme public.\n\nIl est habituellement constitué des initiales de certains des mots de la dénomination. Afin d'en faciliter la prononciation, il arrive qu'on retienne les deux ou trois premières lettres de certains mots : il s'agit alors, au sens strict, d'un acronyme; mais l'usage a étendu à ce cas l'utilisation du terme sigle. Cette variable est à null pour les personnes physiques. Elle peut être non renseignée pour les personnes morales.\n\nLongueur : 20"
				},
				"sexeUniteLegale" : {
					"$ref" : "#/$defs/ApiFrInseeSireneGender",
					"description" : "Cette variable est à null pour les personnes morales. La variable sexeUniteLegale est également non renseignée pour quelques personnes physiques."
				},
				"prenom1UniteLegale" : {
					"type" : "string",
					"description" : "Les variables prenom1UniteLegale à prenom4UniteLegale sont les prénoms déclarés pour une personne physique.\nCes variables sont à null pour les personnes morales.\nToute personne physique sera identifiée au minimum par son nom de naissance et son premier prénom. La variable prenom1UniteLegale peut être à null pour des personnes physiques (unités purgées).\nLes prenom1UniteLegale à prenom4UniteLegale peuvent contenir des *, qui ne sont pas significatifs.\n\nLongueur : 20"
				},
				"prenom2UniteLegale" : {
					"type" : "string",
					"description" : "Deuxième prénom déclaré pour une personne physique."
				},
				"prenom3UniteLegale" : {
					"type" : "string",
					"description" : "Troisième prénom déclaré pour une personne physique."
				},
				"prenom4UniteLegale" : {
					"type" : "string",
					"description" : "Quatrième prénom déclaré pour une personne physique."
				},
				"prenomUsuelUniteLegale" : {
					"type" : "string",
					"description" : "Le prénom usuel est le prénom par lequel une personne choisit de se faire appeler dans la vie courante, parmi l'ensemble de ceux qui lui ont été donnés à sa naissance et qui sont inscrits à l'état civil.\nIl correspond généralement au prenom1UniteLegale. Cette variable est à null pour les personnes morales.\n\nLongueur : 20"
				},
				"pseudonymeUniteLegale" : {
					"type" : "string",
					"description" : "Cette variable correspond au nom qu’une personne utilise pour se désigner dans l’exercice de son activité, généralement littéraire ou artistique.\nLe pseudonyme est protégé, comme le nom de famille, contre l’usurpation venant d’un tiers.\n\nLongueur : 100"
				},
				"identifiantAssociationUniteLegale" : {
					"type" : "string",
					"description" : "Lors de sa déclaration en préfecture, l’association reçoit automatiquement un numéro d’inscription au RNA. Elle doit en outre demander son immatriculation au répertoire Sirene lorsqu'elle souhaite demander des subventions auprès de l'État ou des collectivités territoriales, lorsqu'elle emploie des salariés ou lorsqu'elle exerce des activités qui conduisent au paiement de la TVA ou de l'impôt sur les sociétés. Le RNA est le fichier national, géré par le ministère de l'Intérieur, qui recense l'ensemble des informations sur les associations.\n\nLongueur : 10"
				},
				"trancheEffectifsUniteLegale" : {
					"$ref" : "#/$defs/ApiFrInseeSireneTrancheEffectifs",
					"description" : "Il s’agit d’une variable statistique, millésimée au 31/12 d’une année donnée (voir variable anneeEffectifsUniteLegale)."
				},
				"anneeEffectifsUniteLegale" : {
					"type" : "integer",
					"description" : "Seule la dernière année de mise à jour de l’effectif salarié de l’unité légale est donnée si celle-ci est inférieure ou égale à l’année d’interrogation-3. Ainsi une interrogation en 2018 ne renverra la dernière année de mise à jour de l’effectif que si cette année est supérieure ou égale à 2015."
				},
				"dateDernierTraitementUniteLegale" : {
					"type" : "string",
					"description" : "Cette date peut concerner des mises à jour de données du répertoire Sirene qui ne sont pas diffusées. Cette variable peut être à null.",
					"format" : "date"
				},
				"nombrePeriodesUniteLegale" : {
					"type" : "string",
					"description" : "Cette variable donne le nombre de périodes [dateDebut,dateFin] de l’unité légale. Chaque période correspond à l’intervalle de temps pendant lequel la totalité des variables historisées de l’unité légale n’ont pas été modifiées.\n\nLes dates de ces périodes sont des dates d’effet (et non des dates de traitement)."
				},
				"categorieEntreprise" : {
					"$ref" : "#/$defs/ApiFrInseeSireneCategorieEntreprise",
					"description" : "La catégorie d’entreprise est une variable statistique et calculée par l'Insee. Ce n’est pas une variable du répertoire Sirene.\nDéfinition de la catégorie d’entreprise :\n - https://www.insee.fr/fr/metadonnees/definition/c1057\nMéthodologie de calcul et diffusion de la catégorie d’entreprise :\n - https://www.insee.fr/fr/information/1730869."
				},
				"anneeCategorieEntreprise" : {
					"type" : "integer",
					"description" : "Cette variable désigne l’année de validité correspondant à la catégorie d'entreprise diffusée.\n\nLongueur : 4"
				},
				"dateDebut" : {
					"type" : "string",
					"description" : "Date de début de la période au cours de laquelle toutes les variables historisées de l'entreprise restent inchangées.\nLa date 1900-01-01 signifie : date non déterminée. dateDebut peut-être vide uniquement pour les unités purgées (cf. variable unitePurgeeUniteLegale). La date de début de la période la plus ancienne ne correspond pas obligatoirement à la date de création de l'entreprise, certaines variables historisées pouvant posséder des dates de début soit au 1900-01-01, soit antérieures à la date de création.",
					"format" : "date"
				},
				"etatAdministratifUniteLegale" : {
					"$ref" : "#/$defs/ApiFrInseeSireneEtatAdministratif",
					"description" : "Le passage à l’état « Cessée » découle de la prise en compte d’une déclaration de cessation administrative. Pour les personnes morales, cela correspond au dépôt de la déclaration de disparition de la personne morale.\nPour les personnes physiques, cela correspond soit à la prise en compte de la déclaration de cessation d’activité déposée par l’exploitant soit au décès de l’exploitant conformément à la réglementation.\nEn dehors de ces cas, l’unité légale est toujours à l’état administratif « Active ». Pour les personnes morales, la cessation administrative est, en théorie, définitive, l’état administratif \"Cessée\" est irréversible.\nCependant, il existe actuellement dans la base un certain nombre d’unités légales personnes morales avec un historique d'état présentant un état cessé entre deux périodes à l’état actif.\nPour les personnes physiques, dans le cas où l’exploitant déclare la cessation de son activité, puis la reprend quelque temps plus tard, cet état est réversible. Il est donc normal d'avoir des périodes successives d'état actif puis cessé pour les personnes physiques. En règle générale, la première période d’historique d’une unité légale correspond à un etatAdministratifUniteLegale égal à « Active ». Toutefois, l'état administratif peut être à null (première date de début de l'état postérieure à la première date de début d'une autre variable historisée)."
				},
				"nomUniteLegale" : {
					"type" : "string",
					"description" : "Cette variable indique le libellé le nom de naissance pour une personne physique. Cette variable est à null pour les personnes morales. Le répertoire Sirene gère des caractères majuscules non accentués et les seuls caractères spéciaux tiret (-) et apostrophe. Le nom peut être à null (cas des unités purgées, première date de début du nom postérieure à la première date de début d'une autre variable historisée).\n\nLongueur : 100"
				},
				"nomUsageUniteLegale" : {
					"type" : "string",
					"description" : "Le nom d’usage est celui que la personne physique a choisi d’utiliser.\nCette variable est à null pour les personnes morales. Elle peut être également à null pour les personnes physiques.\nLe répertoire Sirene gère des caractères majuscules non accentués et les seuls caractères spéciaux tiret (-) et apostrophe.\nCette variable est historisée.\n\nLongueur : 100"
				},
				"denominationUniteLegale" : {
					"type" : "string",
					"description" : "Cette variable désigne la raison sociale pour les personnes morales. Il s'agit du nom sous lequel est déclarée l'unité légale. Cette variable est à null pour les personnes physiques.\nLe répertoire Sirene gère des caractères majuscules non accentués avec caractères spéciaux (- & + @ ! ? * ° . % : € #).\nLa dénomination peut parfois contenir la mention de la forme de la société (SA, SAS, SARL, etc.).\n\n*Historique*\nUn travail de reconstitution des historiques de dénomination a été entrepris en 2005. Toutefois, avant cette date, des historiques de dénomination peuvent s’avérer incomplets. La dénomination peut être à null (cas des unités purgées, première date de début de la dénomination postérieure à la première date de début d'une autre variable historisée).\n\nLongueur : 120"
				},
				"denominationUsuelle1UniteLegale" : {
					"type" : "string",
					"description" : "Cette variable désigne le nom (ou les noms) sous lequel l'entreprise est connue du grand public. Cet élément d'identification de l'entreprise (sur trois champs : denominationUsuelle1UniteLegale, denominationUsuelle2UniteLegale et denominationUsuelle3UniteLegale) a été enregistré au niveau unité légale avant l'application de la norme d'échanges CFE de 2008. À partir de la norme 2008, la dénomination usuelle est enregistrée au niveau de l'établissement sur un seul champ : denominationUsuelleEtablissement.\nVariables historisées avec une seule indicatrice de changement pour les trois variables.\n\nLongueur : 70"
				},
				"denominationUsuelle2UniteLegale" : {
					"type" : "string",
					"description" : "Second champ de la dénomination usuelle."
				},
				"denominationUsuelle3UniteLegale" : {
					"type" : "string",
					"description" : "Dernier champ de la dénomination usuelle."
				},
				"categorieJuridiqueUniteLegale" : {
					"type" : "string",
					"description" : "La catégorie juridique est un attribut des unités légales.\nCette variable est à 1000 pour les personnes physiques.\nLors de son dépôt de demande de création, le déclarant indique la forme juridique de l’unité légale qu’il crée, qui est ensuite traduite en code.\nCe code est modifiable, à la marge, au cours de la vie de l’unité légale (pour les personnes morales) en fonction des déclarations de l’exploitant. Pour chaque unité légale, il existe à un instant donné un seul code Catégorie juridique. Il est attribué selon la nomenclature en vigueur.\n\n*Historique*\nLa catégorie juridique peut être à null (cas des unités purgées, première date de début de la catégorie juridique postérieure à la première date de début d'une autre variable historisée). En revanche, le libellé associé aux catégories juridiques n’a pas été historisé, si bien que des codes peuvent paraître « Hors nomenclature », alors qu’ils ont été valides à un instant donné.\n\nLongueur : 4"
				},
				"activitePrincipaleUniteLegale" : {
					"type" : "string",
					"description" : "Lors de son inscription au répertoire, l’Insee attribue à toute unité légale un code dit « APE » sur la base de la description de l’activité principale faite par le déclarant. Ce code est modifiable au cours de la vie de l’unité légale en fonction des déclarations de l’exploitant.\nPour chaque unité légale, il existe à un instant donné un seul code « APE ». Il est attribué selon la nomenclature en vigueur. La nomenclature en vigueur est la Naf Rév2 et ce depuis le 1 er Janvier 2008.\nChaque code comporte 2 chiffres, un point, 2 chiffres et une lettre.\nToutes les unités légales actives au 01/01/2008 ont eu leur code APE recodé dans la nouvelle nomenclature, ainsi de très nombreuses entreprises ont une période débutant à cette date. Au moment de la déclaration de l’entreprise, il peut arriver que l’Insee ne soit pas en mesure d’attribuer le bon code APE : la modalité 00.00Z peut alors être affectée provisoirement.\n\n*Historique*\nLe code APE est historisé depuis le 01/01/2005.\nLa règle d’historisation des données d’activité est la suivante :\n - Pour les entreprises cessées avant le 31/12/2004, seul le dernier code activité connu figure, dans la nomenclature en vigueur à la date de fermeture.\n - Pour les entreprises actives après le 01/01/2005 et cessées avant le 31/12/2007, l’historique des codes attribués sur la période est disponible.\n - Pour les entreprises actives après le 01/01/2005 et toujours actives le 1/1/2008, l’historique intègre le changement de nomenclature.\n - Pour les entreprises créées après le 01/01/2008, l’historique comprend les modifications apportées au cours de la vie de l’entreprise.\n\nL'APE peut être à null (cas des unités purgées - pour des raisons de capacité de stockage des données, les données concernant les entreprises cessées avant le 31/12/2002 ont été purgées -, première date de début de l'APE postérieure à la première date de début d'une autre variable historisée).\n\nLongueur : 6"
				},
				"nomenclatureActivitePrincipaleUniteLegale" : {
					"$ref" : "#/$defs/ApiFrInseeSireneNomenclatureApe",
					"description" : "Cette variable indique la nomenclature d’activité correspondant à la variable activitePrincipaleUniteLegale (cf. activitePrincipaleUniteLegale)."
				},
				"nicSiegeUniteLegale" : {
					"type" : "string",
					"description" : "Le siège d’une unité légale est le lieu où sont centralisées l’administration et la direction effective de l’unité légale.\nÀ un instant donné, chaque unité légale a un seul siège. Mais, au cours de la vie de l’unité légale, le siège peut être différent. Chaque siège est identifié par un numéro Nic (Numéro Interne de Classement de l'établissement) qui respecte les règles d’attribution des numéros d’établissement.\nLe Nic est composé de quatre chiffres et d'un cinquième qui permet de contrôler la validité du numéro Siret (concaténation du numéro Siren et du Nic).\n\n*Historique*\nLe Nic du siège peut être à null sur une période mais, en règle générale, pas sur l’ensemble de l’historique (cas des unités purgées, première date de début du Nic postérieure à la première date de début d'une autre variable historisée).\n\nLongueur : 5"
				},
				"economieSocialeSolidaireUniteLegale" : {
					"type" : "boolean",
					"description" : "Cette variable indique si l'entreprise appartient au champ de l’économie sociale et solidaire. La loi n° 2014-856 du 31 juillet 2014 définit officiellement le périmètre de l’économie sociale et solidaire (ESS).\nCelle-ci comprend les quatre familles traditionnelles en raison de leur régime juridique (associations, fondations, coopératives et mutuelles) et inclut une nouvelle catégorie, les entreprises de l’ESS, adhérant aux mêmes principes :\n - poursuivre un but social autre que le seul partage des bénéfices ;\n - un caractère lucratif encadré (notamment des bénéfices majoritairement consacrés au maintien et au développement de l’activité) ;\n - une gouvernance démocratique et participative.\nCette variable est historisée, renseignée pour environ 1 million d'entreprises, sinon null."
				},
				"societeMissionUniteLegale" : {
					"type" : "boolean",
					"description" : "Si l'unité légale est une société à mission.\nCette variable est historisée."
				},
				"caractereEmployeurUniteLegale" : {
					"type" : "boolean",
					"description" : "Lors de sa formalité de création, le déclarant indique si l’unité légale aura ou non des employés. Par la suite, le déclarant peut également faire des déclarations de prise d’emploi et de fin d’emploi. La prise en compte d’une déclaration de prise d’emploi bascule immédiatement l’unité légale en « Employeuse ». Inversement, lorsqu’une déclaration de fin d’emploi est traitée, l’unité légale devient « Non employeuse ». Le caractère employeur est O si au moins l'un des établissements actifs de l'unité légale emploie des salariés.\nCette variable est historisée."
				}
			},
			"required" : ["siren", "statutDiffusionUniteLegale", "unitePurgeeUniteLegale"]
		},
		"ApiFrInseeSireneDoublon" : {
			"type" : "object",
			"description" : "This represents a relation between two entreprises that are the same.",
			"properties" : {
				"siren" : {
					"type" : "string",
					"description" : "Un numéro d’identité de l’unité légale est attribué par l’Insee à toutes les personnes physiques ou morales inscrites au répertoire ainsi qu’à leurs établissements : le numéro Siren. Ce numéro unique est « attribué soit à l’occasion des demandes d’immatriculation au registre du commerce et des sociétés ou des déclarations effectuées au répertoire des métiers, soit à la demande d’administrations » (article R123-224 du code de commerce). Lors de sa création, une unité légale se voit attribuer un numéro Siren de 9 chiffres.\n\n*Règles de gestion*\nLes entrepreneurs individuels, ou personnes physiques, conservent le même numéro Siren jusqu’à leur décès. Les sociétés, ou personnes morales, perdent la personnalité juridique au moment de la cessation de l’activité de l’entreprise. Si l’activité devait reprendre ultérieurement, un nouveau numéro Siren sera attribué. Les numéros d’identification sont uniques : lorsqu’un numéro Siren a été attribué, il ne peut pas être réutilisé et attribué à une nouvelle unité légale, même lorsque l’activité a cessé.\n\n*Historique*\nMême si la mise en place du répertoire Sirene remonte à 1973, toutes les unités légales, y compris celles créées avant cette date, disposent d’un numéro Siren pour le secteur privé non agricole. En 1983, le champ du répertoire Sirene et l’obligation d’immatriculation ont été étendus aux institutions et services de l’État et aux collectivités territoriales.\nEn 1993, le champ du répertoire Sirene et l’obligation d’immatriculation ont été étendus au secteur privé agricole.\n\nLongueur : 9"
				},
				"sirenDoublon" : {
					"type" : "string",
					"description" : "Le numéro siren de l'entreprise en doublon.\nLongueur : 9"
				},
				"dateDernierTraitementDoublon" : {
					"type" : "string",
					"description" : "Date du dernier traitement du lien entre le siren valide et le siren doublon.",
					"format" : "date"
				}
			},
			"required" : ["siren", "changementEtatAdministratifUniteLegale", "changementNomUniteLegale", "changementNomUsageUniteLegale", "changementDenominationUniteLegale", "changementDenominationUsuelleUniteLegale", "changementCategorieJuridiqueUniteLegale", "changementActivitePrincipaleUniteLegale", "changementNicSiegeUniteLegale", "changementEconomieSocialeSolidaireUniteLegale", "changementCaractereEmployeurUniteLegale", "changementSocieteMissionUniteLegale"]
		}
	}
}